{
  "from": 1,
  "to": 10,
  "total": 526,
  "currentPage": 1,
  "totalPages": 53,
  "queryTime": "0.014",
  "totalTime": "0.050",
  "partial": false,
  "canonicalUrl": "/v1/products((categoryPath.id=abcat0501000))?show=image,name,regularPrice,salePrice&format=json&apiKey=8ccddf4rtjz5k5btqam84qak",
  "products": [
    {
      "image": "http://img.bbystatic.com/BestBuy_US/images/products/4959/4959312_sa.jpg",
      "name": "Acer - Aspire 21.5\" Touch-Screen All-In-One - Intel Core i3 - 8GB Memory - 1TB Hard Drive - Black",
      "regularPrice": 609.99,
      "salePrice": 609.99
    },
    {
      "image": "http://img.bbystatic.com/BestBuy_US/images/products/4959/4959306_sa.jpg",
      "name": "Acer - Aspire Desktop - Intel Core i5 - 8GB Memory - 2TB Hard Drive - Black",
      "regularPrice": 549.99,
      "salePrice": 549.99
    },
    {
      "image": "http://img.bbystatic.com/BestBuy_US/images/products/4816/4816101_sa.jpg",
      "name": "Acer - Aspire Predator G3-710 Desktop - Intel Core i5 - 8GB Memory - 1TB Hard Drive - Black",
      "regularPrice": 849.99,
      "salePrice": 849.99
    },
    {
      "image": "http://img.bbystatic.com/BestBuy_US/images/products/4816/4816100_sa.jpg",
      "name": "Acer - Aspire Predator G3-710 Desktop - Intel Core i7 - 16GB Memory - 1TB Hard Drive - Black",
      "regularPrice": 1099.99,
      "salePrice": 1099.99
    },
    {
      "image": "http://img.bbystatic.com/BestBuy_US/images/products/2517/2517033_sa.jpg",
      "name": "Acer - Aspire Z 23\" Touch-Screen All-in-One - Intel Core i3 - 8GB Memory - 2TB Hard Drive - Black/Silver",
      "regularPrice": 799.99,
      "salePrice": 559.99
    },
    {
      "image": "http://img.bbystatic.com/BestBuy_US/images/products/4445/4445934_sa.jpg",
      "name": "Acer - Chromebase 21.5\" All-In-One - NVIDIA Tegra K1 - 4GB Memory - 16GB Flash Memory - White",
      "regularPrice": 329.99,
      "salePrice": 329.99
    },
    {
      "image": "http://img.bbystatic.com/BestBuy_US/images/products/8135/8135039_sa.jpg",
      "name": "Acer - Chromebox - Intel Core i3 - 4GB Memory - 16GB Solid State Drive - Black",
      "regularPrice": 324.99,
      "salePrice": 324.99
    },
    {
      "image": "http://img.bbystatic.com/BestBuy_US/images/products/4445/4445931_sa.jpg",
      "name": "Acer - CXI2 Chromebox - Intel Celeron - 4GB Memory - 16GB Flash Memory - Black",
      "regularPrice": 202.99,
      "salePrice": 202.99
    },
    {
      "image": "http://img.bbystatic.com/BestBuy_US/images/products/4959/4959303_sa.jpg",
      "name": "Acer - Desktop - Intel Core i3 - 4GB Memory - 1TB Hard Drive - Multi",
      "regularPrice": 499.99,
      "salePrice": 499.99
    },
    {
      "image": "http://img.bbystatic.com/BestBuy_US/images/products/4959/4959301_sa.jpg",
      "name": "Acer - Desktop - Intel Core i5 - 8GB Memory - 1TB Hard Drive - Multi",
      "regularPrice": 599.99,
      "salePrice": 599.99
    }
  ]
}